Clustering GAINCapital clients with K_Means
…
In the above table the 3 rows refer to our clusters. The numbers across each row indicate the clusters average value for the category listed at the top of the column. Because the values are standardised, positive values are above the overall mean and negative are bellow. The highest values are of most interest to their corresponding clusters.

Assigning Clusters to the Original Data

Now we can assign clusters to the original dataset with client IDs so we can tell, which cluster each client belongs to.

df$cluster <- df_clusters$cluster

df

## # A tibble: 244,269 x 8
##       ID `Age Score` `Trading Experi~ `Net Worth Scor~ `Income Score`
##    <int>       <dbl>            <dbl>            <dbl>          <dbl>
##  1     1           2                2              1.5              2
##  2     2           3               15              5.5              2
##  3     3           2                5              2.5              2
##  4     4           2                8              3.5              3
##  5     5           2                1              3.5              3
##  6     6           6                1              2.5              3
##  7     7           4                0              7                1
##  8     8           5                0              2.5              3
##  9     9           2                0              1.5              1
## 10    10           2                0              1.5              2
## # ... with 244,259 more rows, and 3 more variables: Gender_Sort <dbl>,
## #   Device_Sort <dbl>, cluster <int>
